<?xml version="1.0" standalone="no"?>
<!DOCTYPE svg PUBLIC "-//W3C//DTD SVG 20010904//EN"
 "http://www.w3.org/TR/2001/REC-SVG-20010904/DTD/svg10.dtd">
<svg version="1.0" xmlns="http://www.w3.org/2000/svg"
 width="260.000000pt" height="260.000000pt" viewBox="0 0 260.000000 260.000000"
 preserveAspectRatio="xMidYMid meet">
<metadata>
Created by potrace 1.11, written by Peter Selinger 2001-2013
</metadata>
<g transform="translate(0.000000,260.000000) scale(0.100000,-0.100000)"
fill="#000000" stroke="none">
<path d="M446 2529 c-177 -42 -342 -217 -376 -398 -6 -33 -10 -358 -10 -840 0
-666 3 -796 15 -850 44 -187 201 -342 385 -381 40 -8 280 -10 875 -8 l820 3
65 28 c127 53 233 159 288 288 l27 64 3 825 c2 601 0 840 -8 880 -37 175 -176
327 -348 380 -62 19 -93 20 -881 19 -456 -1 -833 -5 -855 -10z m1714 -789 l0
-60 -865 0 -865 0 0 53 c0 30 3 57 7 60 3 4 393 7 865 7 l858 0 0 -60z m0
-300 l0 -60 -865 0 -865 0 0 60 0 60 865 0 865 0 0 -60z m0 -290 l0 -60 -865
0 -865 0 0 60 0 60 865 0 865 0 0 -60z m0 -300 l0 -60 -862 2 -863 3 -3 58 -3
57 866 0 865 0 0 -60z"/>
</g>
</svg>
