<?xml version="1.0" encoding="UTF-8" standalone="no"?>
<svg width="40px" height="34px" viewBox="0 0 40 34" version="1.1" xmlns="http://www.w3.org/2000/svg" xmlns:xlink="http://www.w3.org/1999/xlink">
    <!-- Generator: Sketch 42 (36781) - http://www.bohemiancoding.com/sketch -->
    <title>ICON_Riders</title>
    <desc>Created with Sketch.</desc>
    <defs></defs>
    <g id="Current" stroke="none" stroke-width="1" fill="none" fill-rule="evenodd">
        <g id="Pre-Landing" transform="translate(-111.000000, -1578.000000)" stroke="#B7A59E" stroke-width="1.34515599">
            <g id="Group-26" transform="translate(64.000000, 1287.000000)">
                <g id="Group-23" transform="translate(48.000000, 84.000000)">
                    <g id="ICON_Riders" transform="translate(0.000000, 208.000000)">
                        <path d="M32.669434,18.6832744 C32.669434,9.18947949 24.8835731,1.55204359 15.4750476,2.06301795 C7.30448604,2.50740256 0.595520525,9.29683846 0.0936792556,17.6341462 C-0.00615654078,19.2907359 0.13228243,20.9011205 0.477048714,22.4299667 C0.845775588,24.0648128 2.69074111,24.8815564 4.12571429,24.0648128 C6.47118993,22.728941 10.5085495,21.1063256 16.3655829,21.0057615 C31.3156606,20.7502744 32.669434,18.6832744 32.669434,18.6832744 Z" id="Stroke-1"></path>
                        <path d="M32.6140585,17.3130205 C32.6140585,17.3130205 34.4563617,17.5236615 37.4594224,19.4235077 C38.0597684,19.8026615 37.8041887,20.7498667 37.0973513,20.7498667 L22.6797311,20.7498667" id="Stroke-3"></path>
                        <path d="M16.3659823,21.0058974 L14.3599483,30.6817949 C14.162939,31.4985385 13.275066,31.9157436 12.5416057,31.5325128 C10.5821618,30.5078462 7.09057121,26.9745128 4.97671461,23.6096923" id="Stroke-5"></path>
                        <path d="M10.8787407,2.79591282 C10.8228326,2.67088718 10.7828983,2.53770769 10.7589377,2.39909231 C10.5779021,1.34860513 11.4138605,0.321220513 12.6252015,0.10514359 C13.8352114,-0.112292308 14.9640215,0.563117949 15.145057,1.61224615 C15.1663553,1.74406667 15.1743422,1.87452821 15.1663553,2.00363077" id="Stroke-7"></path>
                        <path d="M12.4391076,6.17092564 C8.27262704,8.43769487 5.1457699,12.5037462 4.10348418,17.3131564" id="Stroke-9" stroke-linecap="round"></path>
                    </g>
                </g>
            </g>
        </g>
    </g>
</svg>